<svg id="Tilicho_Kala_Pattern_black" data-name="Tilicho Kala Pattern_black" xmlns="http://www.w3.org/2000/svg" width="500" height="499.997" viewBox="0 0 500 499.997">
  <path id="Path_3533" data-name="Path 3533" d="M195.881,287.586c-11.971,1.337-19.228,11.644-19.086,20.426l.007.384h4.91l-.008-.462c-.093-5.785,4.971-14.379,14.723-15.467,9.737-1.087,18.63,5.937,20.086,13.206.159.789.352,2.083.537,2.726h5.031c-.2-.971-.1-1.527-.417-3.106C219.759,295.786,208.335,286.2,195.881,287.586Z" transform="translate(117.819 191.592)" fill="#272727"/>
  <path id="Path_3534" data-name="Path 3534" d="M7.21,267.061c.376-.681,4.291-.23,6.172-.013,5.3.613,11.9,1.374,16.01-3.455,3.393-3.992,4.335-8.048,5.091-11.308.676-2.909,1.088-4.466,2.408-5.258a16.392,16.392,0,0,1,3.992-1.335c4.849-1.228,12.174-3.084,14.952-13.755,2.342-9-1.115-12.683-3.639-15.372-1.571-1.674-2.392-2.627-2.42-4.335-.105-6.3-.3-18.028-8.881-21.777a19.882,19.882,0,0,0-6.464-1.566c-2.368-.239-2.615-.264-3.4-4.194-1.9-9.5-13.308-19.48-25.744-18.091A22.238,22.238,0,0,0,0,167.635V172.8a16.384,16.384,0,0,1,5.77-1.389c9.736-1.088,18.991,6.978,20.446,14.247,1.28,6.4,3.417,7.679,7.721,8.115a15.112,15.112,0,0,1,4.992,1.18c5.251,2.293,5.818,10.165,5.939,17.36.062,3.682,2.106,5.86,3.749,7.611,2.215,2.36,4.128,4.4,2.467,10.777-2.046,7.861-6.8,9.066-11.407,10.233a19.485,19.485,0,0,0-5.313,1.886c-3.166,1.9-3.927,5.182-4.665,8.357-.7,3.024-1.427,6.154-4.049,9.237-2.407,2.832-7.134,2.285-11.707,1.759-4.46-.516-9.075-1.048-11.038,2.529A14.467,14.467,0,0,1,0,268.316v6.151A21.6,21.6,0,0,0,7.21,267.061Z" transform="translate(0.002 110.865)" fill="#272727"/>
  <path id="Path_3535" data-name="Path 3535" d="M9.87,146.046A30.694,30.694,0,0,0,11,141.193c.654-3.722,1.16-5.909,3.941-7.578,5.413-3.246,9.687-5.812,9.8-14.524a18.521,18.521,0,0,0-5.281-13.7c-3.607-3.442-8.644-5-14.992-4.618A21.277,21.277,0,0,0,0,101.5v4.75a36.127,36.127,0,0,1,4.765-.581c4.924-.3,8.729.806,11.31,3.268,3.468,3.308,3.785,8.158,3.76,10.09-.075,5.975-2.225,7.264-7.416,10.378-4.837,2.9-5.588,7.17-6.249,10.936a26.563,26.563,0,0,1-.941,4.1c-.449,1.3-1.991,2.674-4.124,3.674-.344.162-.716.314-1.1.459v5.5a22.623,22.623,0,0,0,3.188-1.516C6.6,150.965,8.97,148.652,9.87,146.046Z" transform="translate(0.001 67.114)" fill="#272727"/>
  <path id="Path_3536" data-name="Path 3536" d="M242.475,301.094c2.181-2.532,3.375-3.435,6.06-3.836l-4.655-4c-4.782,2.844-6.534,4.979-7.513,11.153-.005.033.017.065.023.1h5.091A11.6,11.6,0,0,1,242.475,301.094Z" transform="translate(157.563 195.478)" fill="#272727"/>
  <path id="Path_3537" data-name="Path 3537" d="M236.454,4.436c1.212,6.139,7,11.159,14.077,12.208a12.255,12.255,0,0,0,1.8.134c4.7,0,8.793-2.8,11.183-7.761A19.84,19.84,0,0,0,265.4,0h-4.92a14.512,14.512,0,0,1-1.384,6.885,6.937,6.937,0,0,1-7.679,4.223c-5.642-.836-7.763-3.343-9.345-6.865-.521-1.158-.986-3.168-.549-4.241h-5.046A10.915,10.915,0,0,0,236.454,4.436Z" transform="translate(157.454 0.009)" fill="#272727"/>
  <path id="Path_3538" data-name="Path 3538" d="M182.014,1.754c.113,6.376.152,8.522-4.885,12.313-6.786,5.1-9.551,13.54-7.4,22.563a15.386,15.386,0,0,0,7.307,9.362,22.1,22.1,0,0,0,16.228,2.64c5.51-1.377,10.1-6.229,10.921-11.535a10.237,10.237,0,0,0-5.137-10.6c-9.32-5.723-13.3-2.367-14-1.636l3.54,3.4a.6.6,0,0,1-.152.14c.564-.394,3.111-.751,8.04,2.275a5.363,5.363,0,0,1,2.854,5.665,9.959,9.959,0,0,1-7.261,7.521,17.029,17.029,0,0,1-12.49-2.073,10.549,10.549,0,0,1-5.081-6.306c-1.712-7.169.319-13.546,5.573-17.5,7.039-5.3,6.96-9.682,6.842-16.324l-.015-.9c0-.247.015-.5.028-.761h-4.929c-.01.282-.013.561-.01.84Z" transform="translate(112.645 0.008)" fill="#272727"/>
  <path id="Path_3539" data-name="Path 3539" d="M9.537,113.421a1,1,0,0,0-.364-1.409l-2.579-1.4a.99.99,0,0,0-1.307.34A7.688,7.688,0,0,1,0,114.209v4.7C2.447,118.824,6.384,118.468,9.537,113.421Z" transform="translate(0.002 73.656)" fill="#272727"/>
  <path id="Path_3540" data-name="Path 3540" d="M5.528,214.773A16.084,16.084,0,0,1,0,215.382v4.909a30.92,30.92,0,0,0,6.635-.644c5.51-1.377,10.075-6.136,10.891-11.442a10.231,10.231,0,0,0-5.137-10.594c-4.68-2.876-8.013-3.46-10.26-3.236a2.3,2.3,0,0,0-1.3,3.944A24.067,24.067,0,0,1,9.818,201.8a5.36,5.36,0,0,1,2.854,5.663C12.153,210.839,9.145,213.868,5.528,214.773Z" transform="translate(0.002 129.524)" fill="#272727"/>
  <path id="Path_3541" data-name="Path 3541" d="M9.652,267.647l.037-.028a2.426,2.426,0,0,0,.209-3.63A13.989,13.989,0,0,0,0,259.656v4.9a9.01,9.01,0,0,1,6.458,2.926A2.423,2.423,0,0,0,9.652,267.647Z" transform="translate(0.002 172.994)" fill="#272727"/>
  <path id="Path_3542" data-name="Path 3542" d="M298.888,231.078a10.554,10.554,0,0,1-5.082-6.3c-1.711-7.169.319-13.548,5.573-17.5,5.516-4.149,2.53-9.5.35-13.4-1.309-2.343-2.66-4.767-2.7-7-.08-4.945,3.622-11.927,10.786-14.536v-5.164c-9.933,2.706-15.821,11.861-15.694,19.779.057,3.468,1.789,6.574,3.318,9.313,2.617,4.69,2.764,5.748.985,7.089-6.785,5.1-9.55,13.54-7.4,22.564a15.386,15.386,0,0,0,7.311,9.362,22.6,22.6,0,0,0,11.478,3.19v-4.909A17.561,17.561,0,0,1,298.888,231.078Z" transform="translate(192.179 111.376)" fill="#272727"/>
  <path id="Path_3543" data-name="Path 3543" d="M301.019,47.418v-19.5l-.023,0v.065c-1.018,1.506-3.126,6.189-2.352,10.5.788,4.386,1.21,6.331,2.352,8.739v.19A.11.11,0,0,0,301.019,47.418Z" transform="translate(198.979 18.689)" fill="#272727"/>
  <path id="Path_3544" data-name="Path 3544" d="M304.582,125.356v-5.021c-.619.005-1.117.037-1.764-.017a4.729,4.729,0,0,1-3.739-2.232c-.731-2.083-1.467-6.359.409-9.182a7.769,7.769,0,0,1,5.094-3.036v-4.56c-.087-.023-.172-.05-.257-.078-4.234,1.289-7.347,2.615-9.228,5.445-3.552,5.343-1.242,11.532-.778,12.854,1,2.851,4.431,5.214,7.977,5.5a9.119,9.119,0,0,0,2.282,0v.334S304.582,125.358,304.582,125.356Z" transform="translate(195.417 67.476)" fill="#272727"/>
  <path id="Path_3545" data-name="Path 3545" d="M316.033,320.239v.1c-6.059,2.772-10.163,3.151-14.89-.925-3.482-3-4.086-5.713-4.725-8.582-.659-2.958-1.405-6.307-5.526-8.7-.845-.491-1.631-.935-2.358-1.345-4.862-2.742-6.329-3.57-7.3-7.736-1.152-4.961,1.424-8.284,2.851-9.117,3.318-1.933,5.216-6.419,4.512-10.649-.048-.564.773-2.871,3.088-5.231,1.531-1.559,4.715-4.124,8.921-3.856a15.751,15.751,0,0,0,15.421-9.287v.567l0-.01V244.188l0,0v.1c-1.793,1.17-4.173,5.882-4.173,5.882-.04.11-4.088,9.272-10.537,9.272-.128,0-.257-.005-.387-.013-4.765-.322-9.621,1.839-13.309,5.912-2.083,2.3-4.345,6-3.867,8.861.364,2.2-.6,4.719-2.138,5.618-3.018,1.758-6.882,7.06-5.161,14.468,1.457,6.269,4.547,8.013,9.666,10.9.713.4,1.479.835,2.3,1.314,2.262,1.314,2.615,2.9,3.2,5.525.713,3.193,1.6,7.167,6.309,11.233a14.077,14.077,0,0,0,9.462,3.755,22.3,22.3,0,0,0,8.634-2.113v-4.658S316.035,320.239,316.033,320.239Z" transform="translate(183.962 162.644)" fill="#272727"/>
  <path id="Path_3546" data-name="Path 3546" d="M305.98,287.135v-5.089h0v.078c-.556.013-1.093.015-1.656.033l-.915,0a7.453,7.453,0,0,1-5.909-3.1,8.506,8.506,0,0,1-.923-8.048c1.2-3.452,3.667-5.81,6.6-6.306a12.882,12.882,0,0,1,2.8-.1v.083h0v-4.929c-.037-.025-.075-.047-.11-.072a11.6,11.6,0,0,0-3.515.052c-4.729.8-8.624,4.366-10.418,9.537a13.273,13.273,0,0,0,1.607,12.57,11.883,11.883,0,0,0,9.8,5.181h1.078c.526-.018,1.078.022,1.559.01v.1Z" transform="translate(194.018 172.942)" fill="#272727"/>
  <path id="Path_3547" data-name="Path 3547" d="M441.071,459.925c-2.44-1.183-4.756-2.1-6.8-2.913-7.5-2.977-12.034-4.773-14.183-15.513-2.035-10.175-10.511-14.584-17.163-16.494a8.56,8.56,0,0,1,2.248.557,22.74,22.74,0,0,0,9.676,1.283c10.511-.673,14.676-3.991,17.7-8.766a21.633,21.633,0,0,0,2.278-5.691c.88-3.035,1.472-4.781,3.387-5.443,6.156-2.123,13.874-8.781,12.348-15.761-1.023-4.676.98-9.99,3.275-10.9.51-.2,1.113-.378,1.752-.567a16.175,16.175,0,0,0,8.7-5.2c4.555,6.463,15.071,15.169,22.222,15.169a7.451,7.451,0,0,0,1.747-.2c4.441-1.065,8.511-1.71,11.721-4.223v.1l0,0,0-6.5h0v.255c-2.648,3.457-7.39,4.286-12.863,5.6-5.04,1.2-17.481-9.536-19.866-14.636a37.189,37.189,0,0,0,1.57-3.39c4.463-10.988,1.845-21.611-1.753-27.367-1.477-2.362-1.39-2.7,2.3-9.05.452-.78.947-1.632,1.482-2.57,4.68-8.19,4.995-19.309.865-30.505-1.86-5.041-5.688-6.895-8.763-8.385-3.467-1.678-4.865-2.5-4.618-5.94.795-11.125-9.081-19.628-18.774-21.979a8.62,8.62,0,0,1-4.433-2.6c2.722-.5,5.98-1.59,7.863-3.94a7.27,7.27,0,0,0,1.312-6.433l-.333-1.422c-1.98-8.4-2.132-11.261,3.667-13.046a14.863,14.863,0,0,0,8.381-6.806c6.033,2.072,7.74,4.7,9.336,10.626.757,2.81,2.937,4.961,6.3,6.223a21.787,21.787,0,0,0,7.536,1.215c5.16,0,10.706-1.4,14.5-3.952,2.567-1.722,4.242-2.232,5.93-2.285v.038c.125,0,.243.005.365.007v-5.081l-.02-.013v.138c-2.473-.017-3.285.563-7.1,3.125-4.486,3.01-13.006,5.3-17.888,3.471-1.852-.693-4.023-1.725-4.357-2.962-1.832-6.8-4.483-11.653-12.153-14.468a32.218,32.218,0,0,0,1.378-11.523c-.393-8.66-6-11.485-11.183-14.654a27.124,27.124,0,0,1-5.565-4.595c-1.392-1.618-2-3.092-1.123-6.586.775-3.082,2.188-6.791,1.123-11.233-2.09-8.726-10.485-11.808-15.114-13.583-.495-.188-.938-.358-1.315-.513-2.932-1.2-7.646-5.928-9.526-10.261-2.78-6.406-14.176-7.29-17.056-6.3-1.388.477-7-.3-9.428-4.68-3.348-6.026-9.675-10.211-9.675-10.211-2.873-5.008-8.7-9.99-14.018-12.816,7.363-2.122,10.86-11.52,14.093-19.879,1.517-3.922,4.851-6.548,7.148-8.646a18.629,18.629,0,0,0,5.446-9.123,32.858,32.858,0,0,0-1.022-20.153c-1.748-4.721.95-8.466,4.63-12.663,2.97-3.388,5.076-10.341,3.2-19.608,7.055-3.662,13.161-2.95,18.886-1.478l.783.2c5.038,1.3,6.088,1.572,8.653-.63a23.237,23.237,0,0,1,3.847-2.73c6.29-3.672,21.394-1.923,26.126.952,4.583,2.782,9.166,1.837,14.019.832,1.767-.365,3.593-.743,5.516-.963,6.821-.783,15.869.942,20.721,6.558,1.247,1.442.258,3.163.952,4.95v.07h.023V25.227s0,0,0,0v.123c-5.893-7.258-16.963-9.14-24.152-8.316-2.142.245-4.078.647-5.95,1.033-4.382.9-7.546,1.562-10.483-.223a15.849,15.849,0,0,0-2.5-1.2,70.756,70.756,0,0,1-1.6-16.648h-4.895a71.642,71.642,0,0,0,1.2,15.181c-7.14-1.382-16.384-1.178-22,2.1a27.976,27.976,0,0,0-4.568,3.243c-.185.158-.407.348-.54.45a32.82,32.82,0,0,1-3.695-.847l-.787-.2c-6.233-1.6-12.979-2.768-21.149,1.177a29.343,29.343,0,0,0-2.517-4.963,28.157,28.157,0,0,0-9.546-9.293c-3.027-1.955-4.312-2.8-4.15-6.845h-4.895c-.152,6.73,3.027,8.793,6.385,10.963a23.245,23.245,0,0,1,8.065,7.8c6.473,10.233,3.283,21.494.228,24.981-3.215,3.667-7.216,8.23-4.271,16.184,2.352,6.346,1.258,13.7-.072,18.758-.658,2.5-2.348,4.046-4.486,6-2.46,2.248-5.521,5.045-7.453,10.04-2.858,7.393-6.1,15.771-11.255,17.049-7.238,1.8-8.841,4.29-13.823,13.543-4.055,7.531-13.189,11.076-24.437,9.488a65.114,65.114,0,0,1-8.475-1.878c-5.88-1.61-10.523-2.878-17.091,1.718-7.37,5.16-16.514,5.568-16.6,5.571l-.083,0c-6.963.487-7.945-.93-10.09-4.021-.56-.807-1.195-1.722-1.987-2.682-2.447-2.972-7.461-8.041-13.559-8.62a11.648,11.648,0,0,0-5.016.615,36.548,36.548,0,0,0-5.11-17.209c-.468-.85-.58-1.053,2.163-3.443a21.89,21.89,0,0,0,5.885-7.028c1.43-2.948,4.643-11,2.512-20.091a15.149,15.149,0,0,0,8.046,1.167c.74-.093,1.447-.19,2.123-.282,7.27-.98,7.9-.653,8.551,1.825,1.535,5.831,9.885,11.885,17.588,11.885a13.3,13.3,0,0,0,3.1-.355c7.6-1.822,14.139-6.27,17.069-11.61.373-.682,4.283-.23,6.161-.013,5.3.612,11.888,1.37,15.988-3.452,3.388-3.987,4.328-8.036,5.081-11.29.675-2.907,1.087-4.46,2.4-5.25a16.417,16.417,0,0,1,3.986-1.333c4.841-1.227,12.156-3.08,14.929-13.734,2.34-8.985-1.112-12.664-3.633-15.349-1.568-1.672-2.388-2.623-2.417-4.328-.1-6.291-.3-18-8.87-21.744a19.818,19.818,0,0,0-6.455-1.563c-1.9-.192-2.435-.25-2.978-2.31h-5.023c1.3,5.595,3.427,6.775,7.508,7.186a15.09,15.09,0,0,1,4.985,1.178c5.245,2.292,5.81,10.15,5.93,17.334.062,3.677,2.1,5.851,3.743,7.6,2.21,2.357,4.122,4.391,2.463,10.76-2.043,7.851-6.795,9.055-11.39,10.218a19.456,19.456,0,0,0-5.3,1.883c-3.162,1.9-3.922,5.175-4.658,8.345-.7,3.02-1.425,6.145-4.043,9.223-2.4,2.827-7.123,2.283-11.69,1.757-4.457-.513-9.063-1.045-11.021,2.525-2.287,4.167-7.618,7.691-13.916,9.2-5.541,1.322-13.676-3.718-14.806-8.011-1.858-7.066-7.461-6.311-13.948-5.435-.663.09-1.358.183-2.085.275-6.183.788-10.123-4.216-10.286-4.43l-.38.29a30.762,30.762,0,0,0-3.512-4.678,50.608,50.608,0,0,0-8.218-7.458c-2.468-1.822-2.725-2.012-3.292-7.52-.877-8.53-6.665-13.8-17.2-15.678-2.8-.5-2.8-.5-4.383-4.775l-.36-.968c-1.485-3.983-6.233-7.845-11.813-9.61a19,19,0,0,0-16.826,2.23c-5.663,3.887-7.94,1.45-11.091-1.923-.227-.242-.455-.485-.685-.727,6.063-1.9,10.463-6.281,13.659-9.476,1.273-1.273,4.806-2.378,8.548-3.547C205.222,4.373,210.4,2.743,215.06,0H202.724C201.551.385,200.4.745,199.3,1.09c-4.708,1.472-8.426,2.635-10.551,4.76-3.962,3.962-9.363,9.376-17.2,8.958-6.658-1.25-17.543.258-23.926,5.628l-.253.233-.19.278c-.382.562-3.878,5.423-8.636,3.077-6.985-3.44-16.961-2.89-22.037,2.382-.357-.3-.722-.6-1.1-.885-7.436-5.491-7.511-6.168-8.241-12.648-.075-.653-.153-1.357-.245-2.117-.665-5.473-4.606-8.81-8.245-10.753H86.031c2.242,1.46,15.281,5.253,16.019,11.343.092.745.168,1.433.24,2.075.845,7.51,1.382,9.53,10.2,16.043a15.33,15.33,0,0,1,6.026,10.468,18.551,18.551,0,0,1-3.473,13.688c-4.865,6.261-2.5,10.855-.413,14.906a22.311,22.311,0,0,1,2.437,6.233c1.063,5.8-1.362,9.841-9.266,15.446-5.743,4.071-7,7.321-8.326,10.761a36.052,36.052,0,0,1-1.89,4.29c-2.63,4.931-11.791,10.246-17.916,9.133a24.841,24.841,0,0,1-5.355-1.827c-4.426-1.9-9.446-4.047-17.241.547-6.423,3.785-11.338,0-15.674-3.347-1.035-.8-2.013-1.55-2.953-2.142-2.842-1.787-5.928-1.7-9.193-1.618-3.235.085-6.583.175-10.566-1.357C11.557,101.9,5.275,94.958,7.31,85.622,9.652,74.879,8.335,71.6,5.135,65.2c-1.987-3.972-3.58-9.708-2.1-13.9a8.782,8.782,0,0,1,5-5.136C18.6,41.35,21.228,38.988,23.666,32.127a12.837,12.837,0,0,1,6.63-7.065,8.519,8.519,0,0,1,6.82-.177c6.7,2.8,12.23,3.975,17.414.578,1.338-.877,4.663-1.125,7.7.005,1.667.62,2.815,1.528,3.072,2.432,1.575,5.51,8.68,5.766,14.389,5.971,1.048.038,2.038.073,2.91.138,1.417.107,2.978,1.255,4.18,3.073a9.523,9.523,0,0,1,1.443,7.9c-1.73,5.076-.923,10.778,2.4,16.948.63,1.168-1.427,4.781-5.493,8.293-4.27,3.688-3.168,8.58-2.1,13.309.18.8-.293,1.995-1.3,3.28-2.488,3.185-7.59,6.153-10.7,6.226C67.1,93.1,60,92.206,56.287,85.022c-4.268-8.251-8.755-9.29-11.723-9.975l-.378-.087a8.58,8.58,0,0,1-3.118-3.967,13.621,13.621,0,0,1-.323-10.663c1.817-4.71,7.358-7.451,11.648-7.64,2.545-.112,4.488.653,5.171,2.048,2.728,5.571-.978,7.685-1.017,7.706s-4.685,2.527-7.613.223L45.9,66.521c5.355,4.213,12.235.643,13,.223,3.167-1.737,6.6-6.941,3.062-14.161-1.59-3.247-5.17-4.985-9.788-4.79-5.991.262-13.413,4.047-16.008,10.773a18.382,18.382,0,0,0,.873,15.349c1.627,3.09,3.915,5.313,5.975,5.8l.44.1c2.458.568,5.245,1.213,8.471,7.451,3.608,6.976,10.625,10.848,19.2,10.663,4.56-.107,11.045-3.745,14.453-8.11,1.968-2.52,2.735-5.07,2.217-7.373-1.237-5.493-1.138-7.086.527-8.525,2.293-1.982,9.546-8.868,6.606-14.328-2.648-4.92-3.347-9.308-2.075-13.041a14.358,14.358,0,0,0-1.993-12.18c-2.062-3.122-4.941-5.038-7.9-5.26-.967-.073-2-.11-3.1-.15-3.687-.132-9.256-.333-9.853-2.42-.7-2.467-2.863-4.483-6.076-5.678-3.485-1.3-8.755-1.7-12.091.487-2.58,1.688-5.5,2.067-12.838-1a13.234,13.234,0,0,0-10.695.217,17.713,17.713,0,0,0-9.265,9.9C17.3,35.365,16.345,36.982,6,41.7c-.145.065-.275.142-.415.212C5.569,36.724,3.852,29.885,0,25.361v8.066c.057.253,2,9.045.77,12.15C.5,45.9.242,46.236,0,46.583V65.766c.272.627.532,1.182.753,1.623,2.718,5.435,3.843,7.683,1.77,17.189a20.987,20.987,0,0,0-.01,9.033q-.475.08-1,.157c-.453.068-.967.145-1.517.245v5.036c.69-.147,1.437-.268,2.242-.388.69-.1,1.355-.207,1.982-.34a23.792,23.792,0,0,0,12.7,10.9A30.087,30.087,0,0,0,29.384,110.9c2.717-.07,4.868-.128,6.455.868.742.467,1.63,1.15,2.57,1.873,3.122,2.4,7.72,5.946,13.4,5.946a15.089,15.089,0,0,0,7.756-2.26c5.658-3.335,8.665-2.047,12.824-.265a29.308,29.308,0,0,0,6.406,2.142c8.538,1.555,19.628-5.1,23.117-11.648a40.621,40.621,0,0,0,2.137-4.831c1.235-3.2,2.052-5.31,6.588-8.528,6.413-4.548,13.1-10.245,11.253-20.329a26.639,26.639,0,0,0-2.9-7.593c-1.947-3.78-3.018-5.861-.073-9.653a23.549,23.549,0,0,0,4.458-17.366,20.981,20.981,0,0,0-3.55-9.19c3.333-3.787,11.365-4.206,16.551-1.65,6.74,3.318,12.391-1.278,14.654-4.426,6.378-5.126,18.331-5.621,21.854-3.675a14.05,14.05,0,0,1,2.782,2.552c3.107,3.325,8.308,8.89,17.446,2.618a14.361,14.361,0,0,1,12.574-1.6c4.58,1.448,7.9,4.506,8.7,6.648l.355.957c2.028,5.476,2.78,6.95,8.121,7.9,5.255.933,12.336,3.127,13.183,11.351.715,6.956,1.635,8.29,5.256,10.963a45.519,45.519,0,0,1,7.5,6.81c10.065,11.081,5.19,23.6,3.457,27.172a17.583,17.583,0,0,1-4.695,5.471c-2.417,2.1-5.726,4.988-3.237,9.506,2.218,4.025,7.413,13.451,2.425,26.342-2.267,5.861-5.948,7.621-9.506,9.323-3.8,1.817-8.108,3.878-7.72,10.833.547,9.85-4.145,15.678-6.37,16.823-4.062,2.093-7.526,5.191-13.221,14.841-3.82,6.475-10.551,6.9-13.448,6.76-.792-7.228-4.768-15.329-9.666-19.428-5.846-4.891-6.151-5.636-5.446-13.283.365-3.953-.99-8.233-3.23-12.006,5.875-.865,15.764-4.112,20.213-15.971,1.363-3.635,5.483-3.975,9.946-4.018.838-.008,1.562-.015,2.2-.075,4-.372,14.886-4.87,16.8-13.3.217-.948.433-1.82.64-2.645,1.38-5.528,2.378-9.521-1.057-19.548-2.15-6.28-1.017-8.045.3-10.09a11.842,11.842,0,0,0,2-4.571,20.737,20.737,0,0,0-4.64-16.871c-2.655-3.26-7.208-3.57-11.225-3.845-2.638-.18-5.628-.385-6.3-1.468a19.67,19.67,0,0,1-1.7-3.843c-1.065-2.96-2.272-6.316-6.923-8.94a17.093,17.093,0,0,0-13.014-1.42,13.024,13.024,0,0,0-8.02,6.37c-.47.9-.968,1.073-5.1-.39-3.477-1.228-8.235-2.913-12.481-.072a11.671,11.671,0,0,0-5.351,7.59c-.472,1.74-.71,2.613-2.86,3.622a36.476,36.476,0,0,1-6.126,2.118c-3.223.887-6.27,1.723-8.413,4.821-3.12,4.506-3.178,10.883-.155,16.639.855,1.628.382,3.2-.6,6.083a22.769,22.769,0,0,0-1.633,9.545c.5,6.326,5.281,7.911,8.768,9.068a12.054,12.054,0,0,1,4.148,1.923,23.07,23.07,0,0,1,3,4.157c2.9,4.6,6.858,10.883,14.061,10.883.072,0,.145,0,.217,0,9.506-.165,19.128-5.43,19.128-15.174,0-4,1.54-4.818,4.093-6.171a14.4,14.4,0,0,0,3.973-2.757c3.432-3.655,5.261-11.31,1.613-20.169-1.71-4.153-5.773-7.181-10.868-8.1-5.418-.975-10.841.637-14.158,4.212-3.785,4.083-4.906,9.575-2.727,13.358.935,1.625,3.9,5.23,11.131,3.593l-1.08-4.78c-1.678.378-4.665.72-5.8-1.258-.943-1.637-.533-4.765,2.075-7.578,2.192-2.362,5.9-3.407,9.693-2.72,3.443.62,6.136,2.543,7.206,5.143,2.8,6.806,1.625,12.519-.655,14.949a10.256,10.256,0,0,1-2.7,1.78c-2.827,1.5-6.7,3.552-6.7,10.5,0,6.581-7.2,10.151-14.311,10.273l-.117,0c-4.515,0-7.39-4.563-9.93-8.595a25.513,25.513,0,0,0-3.85-5.171,15.906,15.906,0,0,0-5.9-2.947c-3.5-1.162-5.191-1.852-5.428-4.8a18.183,18.183,0,0,1,1.387-7.571c1.07-3.135,2.177-6.376.3-9.948-2.173-4.137-2.232-8.57-.155-11.571,1.083-1.563,2.608-2.04,5.681-2.885a41.141,41.141,0,0,0,6.906-2.407,8.989,8.989,0,0,0,5.508-6.775,6.9,6.9,0,0,1,3.347-4.8c2.048-1.37,4.546-.645,8.121.618,3.387,1.2,8.5,3.007,11.088-1.968a8.166,8.166,0,0,1,5.068-3.933,12.256,12.256,0,0,1,9.211.992c3.063,1.727,3.757,3.657,4.718,6.33a24.122,24.122,0,0,0,2.145,4.76c1.995,3.227,6.131,3.508,10.135,3.782,3.168.217,6.445.44,7.756,2.05a15.63,15.63,0,0,1,3.613,12.921,7.448,7.448,0,0,1-1.3,2.778c-2.038,3.175-3.5,6.445-.807,14.324,2.965,8.656,2.245,11.54.938,16.773-.213.857-.44,1.762-.663,2.745-1.275,5.6-9.771,9.255-12.478,9.5-.433.04-1.063.047-1.793.053-4.135.04-11.831.115-14.486,7.2-4.5,12.008-15.678,13.068-19,13.108-2.8-3.108-6.108-5.378-9.138-6.023a46.359,46.359,0,0,0-4.8-.7c-4.047-.44-7.243-.787-10.73-4.606-5.855-6.413-21.906-13.483-33.047-4.748-7.431,5.83-15.383,8.033-24.3,6.736-4.216-.617-9.4,1.487-13.523,5.488-4.365,4.241-6.541,9.508-5.968,14.449.292,2.518-1.787,3.527-8.185,5.278a58.051,58.051,0,0,0-5.673,1.77,14.387,14.387,0,0,0-3.167-5.943,21.12,21.12,0,0,0-14.364-6.541c-4.141-.075-5.023-.712-5.891-4.26-1.477-6.015-9.26-10.551-18.106-10.551-7.62,0-10.271,3.115-12.076,5.613l-1.672.392-.01-.005A20.447,20.447,0,0,0,0,140.918V146.1c.658.275,1.268.587,1.848.888,1.757.913,4.7,2.445,6.911-.475.24-.317.473-.643.707-.972,1.592-2.235,2.848-4,8.4-4,6.981,0,12.536,3.525,13.344,6.816,1.607,6.553,5.09,7.893,10.565,7.993,2.542.047,7.715,1.413,10.778,4.885a9.528,9.528,0,0,1,2.345,5.12,10.682,10.682,0,0,0-2.432,2.577c-5.243,7.936-4.635,18.343,1.668,28.549,3.073,4.976,2.128,8.786,1.128,12.818a33.4,33.4,0,0,0-.8,3.92c-2.65,4.813-9.776,6.471-14.648,7.6a30.731,30.731,0,0,1-4.445.608c-3.6.307-7.328.623-11.138,5.133-3.952,4.676-7.038,5.15-14.5,6.29a18.451,18.451,0,0,1-3.375.212,25.54,25.54,0,0,0-4.74-.43c-.532-.04-1.07-.06-1.623-.05v4.911a19.61,19.61,0,0,1,2.925.2c.837.1,1.768.2,2.81.25a19.588,19.588,0,0,1,5.238,2.028c2.6,1.335,5.281,2.717,9.865,1.48,6.065-1.638,11.6,1.985,15.744,5.323,2.807,2.262,4.885,1.927,7.091,1.573s5.245-.843,11.7.642c8.973,2.063,12.811,10.95,11.406,26.409-.732,8.041,2.682,10.246,6.295,12.58a23.26,23.26,0,0,1,8.065,7.8c6.473,10.233,3.283,21.494.228,24.981-3.215,3.667-7.216,8.23-4.271,16.184,2.352,6.346,1.258,13.7-.072,18.758-.658,2.5-2.348,4.046-4.486,6-2.46,2.248-5.521,5.045-7.453,10.041-2.86,7.393-6.1,15.771-11.255,17.049-7.24,1.8-8.843,4.291-13.823,13.543-2.162,4.015-7.186,7.473-12.8,8.808-3.71.882-7.1.673-8.843-.543-.148-.11-.613-.547-.987-.9-2.812-2.642-8.043-7.558-13.3-6.28A7.577,7.577,0,0,0,0,407.075v10.6c1.427-2.462,3.785-8.151,5.231-8.5,2.677-.647,6.961,3.372,8.79,5.09a15.442,15.442,0,0,0,1.528,1.338,12.851,12.851,0,0,0,7.371,1.973,23.622,23.622,0,0,0,5.423-.673,28.593,28.593,0,0,0,5.411-1.9,29.6,29.6,0,0,0-.2,10.473c-8.131,5.545-6.6,11.578-4.98,17.929.437,1.715.888,3.487,1.215,5.406l.017.083c.013.063,1.248,6.361-3.383,9.738-6.811,4.963-9.218,3.29-11.1,1.153-4.428-5.03-9.63-4.846-15.138-4.653l-.183,0v4.9l.353-.012c5.515-.193,8.52-.148,11.288,2.995a9.854,9.854,0,0,0,7.6,3.718c4.375,0,8.343-2.892,10.07-4.15,6.953-5.068,5.468-13.8,5.306-14.634-.358-2.1-.855-4.048-1.293-5.766-1.4-5.485-2.167-8.553,1.713-11.74a14.828,14.828,0,0,0,2.388,3.808,12.031,12.031,0,0,0,8.1,4.06c-1.35,3.852-.31,8.363.872,11.036.363,1.392,3.05,12.551-2.888,15.626a55.552,55.552,0,0,1-6.523,2.812c-4.1,1.537-7.336,2.75-11,8.015-2.03,2.913-4.458,2.985-8.931,2.858-2.958-.082-6.313-.177-9.771,1.142-1.555.593-3.085,1.3-4.563,1.988-.953.442-1.852.85-2.717,1.218v4.543c1.672-.615,3.372-1.248,4.878-1.948,1.465-.68,2.893-1.1,4.286-1.633,2.548-.972,5.12-.483,7.748-.41,4.433.123,9.455.265,13.091-4.958,2.793-4.012,4.891-4.8,8.7-6.225a60.516,60.516,0,0,0,7.058-3.048c9.948-5.151,5.495-20.832,5.3-21.5l-.122-.33c-.137-.3-3.225-7.275,1.207-9.946,13.894-3.928,15.558-2.827,18.056-1.158a18.792,18.792,0,0,1,5.135,5.213c2.46,6.6.413,17.646-2.658,25.4A25.021,25.021,0,0,0,73.5,486.17a29.9,29.9,0,0,0,12.533,13.816H98.675a26.344,26.344,0,0,0-6.246-2.355,25.544,25.544,0,0,1-14.444-13.443,20.1,20.1,0,0,1-.747-15.364,62.268,62.268,0,0,0,3.908-16.269c3.98,7.3,10.061,14.354,27.131,15.658a50.535,50.535,0,0,0,9.7-.287c3.966-.412,6.363-.663,9.625,1.357a34.813,34.813,0,0,0,17.714,4.9,27.174,27.174,0,0,0,12.7-2.968c5.278-2.776,5.278-2.778,7.636-2.1a62.473,62.473,0,0,0,10.1,2.05c14.023,1.838,26.076-4,33.945-16.438,5.528-8.738,5.216-14.956,4.856-22.156-.083-1.663-.168-3.382-.188-5.22-.05-4.788,2.482-7.711,5.413-11.1,2.337-2.7,4.751-5.486,6.1-9.428,2.935-8.593.162-17.374-8.473-26.849a22.957,22.957,0,0,0-11.6-7.116l-.117-.035a2.448,2.448,0,0,1-1.738-2.62c.025-.223.055-.457.088-.707.323-2.508.728-5.63-1.422-12.591-1.695-5.493-7.143-12.043-23.481-12.043-2.6,0-5.02,1.237-7.155,2.325-4.215,2.153-4.9,2.14-6.1-.112-1.868-3.49-5.948-5.765-11.49-6.406-6.178-.717-14.873.84-19.368,5.943-4,4.543-6.828,3.95-11.11,3.048-1-.212-2.042-.43-3.147-.587-4.421-.632-9.9,3.013-13.241,6.328-4.346,4.313-6.525,9.116-5.976,13.174.668,4.941-.468,6.956-2.955,11.371-.812,1.442-1.732,3.075-2.733,5.076-4.406,8.815,2.323,15.586,6.345,19.633.5.5.97.975,1.4,1.427,1.533,1.623,1.452,2.348.7,6.441a79.24,79.24,0,0,0-1.343,10.628c-.312,5.471,2.2,10.693,7.07,14.7,6.56,5.4,16.191,7.681,23.966,5.686,10.593-2.717,13.726-9.03,16.491-14.6.707-1.423,1.373-2.768,2.16-4.085,1.39-2.33,4.566-3.35,7.926-4.428,4.735-1.52,10.1-3.242,11.92-9.183,3.133-10.248-1.7-20.394-7.276-26.474-6.1-6.655-15.621-7.418-24.259-1.947-3.97,2.517-6.23,5.545-6.716,9-.485,3.426.882,7.066,3.95,10.525,3.917,4.418,9.395,4.381,12.7,3.835a2.456,2.456,0,0,0,1.918-3.262l0-.005a2.438,2.438,0,0,0-2.677-1.582c-2.225.372-5.883.452-8.268-2.238-1.453-1.638-3.112-4.111-2.763-6.588.278-1.967,1.788-3.833,4.488-5.545,6.63-4.2,13.536-3.775,18.019,1.118,4.658,5.08,8.733,13.456,6.2,21.727-.995,3.257-3.962,4.42-8.73,5.95-3.89,1.248-8.3,2.663-10.638,6.581-.883,1.48-1.625,2.975-2.342,4.418-2.63,5.3-4.9,9.871-13.319,12.028-6.236,1.6-14.309-.343-19.634-4.723-2.568-2.113-5.573-5.673-5.29-10.633a73.846,73.846,0,0,1,1.272-10.023c.8-4.346,1.325-7.216-1.958-10.693-.452-.48-.955-.985-1.482-1.517-4.685-4.715-8.061-8.736-5.436-13.984.947-1.893,1.835-3.47,2.62-4.863,2.667-4.735,4.428-7.863,3.54-14.433-.33-2.45,1.422-5.913,4.571-9.04,3.447-3.421,7.315-5.211,9.095-4.955.945.135,1.9.337,2.83.532,4.645.977,9.906,2.083,15.8-4.606,2.808-3.188,9.17-5,15.124-4.313,3.787.438,6.676,1.878,7.733,3.852,3.625,6.773,9.276,3.89,12.654,2.165,1.723-.88,3.5-1.79,4.926-1.79,7.366,0,16.608,1.49,18.8,8.586,1.833,5.943,1.52,8.375,1.242,10.518a14.182,14.182,0,0,0-.1,4c.437,3.232,3.15,4.042,5.331,4.691a18.354,18.354,0,0,1,9.378,5.72c7.423,8.145,9.793,15.124,7.458,21.964-1.038,3.04-3.042,5.355-5.163,7.8-3.13,3.615-6.68,7.711-6.61,14.356.02,1.935.108,3.7.193,5.413.345,6.89.595,11.866-4.1,19.293-4.8,7.59-13.754,16.216-29.165,14.2a57.9,57.9,0,0,1-9.395-1.9c-4.246-1.212-5.045-.792-11.263,2.478-9,4.737-20.214,1.543-25.551-1.762-4.685-2.9-8.406-2.513-12.713-2.065a45.842,45.842,0,0,1-8.815.275C91.1,461.985,87.369,454.318,83.422,446.2a61.264,61.264,0,0,0-3.73-6.893c-.067-.16-.118-.332-.188-.488a12.165,12.165,0,0,0-6.773-6.62c-4.211-2.767-7.571-3.433-22.227.735-4.083,1.163-7.25.515-9.406-1.922-3.34-3.772-3.963-11.388-1.678-18.408a2.523,2.523,0,0,0,.082-1.2,19.623,19.623,0,0,0,4.828-5.755c4.735-8.795,5.431-9.8,10.688-11.108,7.626-1.892,11.355-11.533,14.644-20.039,1.517-3.922,3.892-6.091,6.188-8.19,2.407-2.2,4.895-4.473,5.92-8.373,1.51-5.738,2.723-14.163-.072-21.707-1.748-4.721-.318-7.053,3.36-11.25,3.358-3.832,6.835-14.131,3.153-24.767,7.128-.31,13.349-3.9,18.506-6.881,3.362-1.945,6.538-3.781,9.041-4.15,3.877-.568,6.965,1.117,10.54,3.072,4.081,2.23,8.708,4.757,14.773,3.4a24.6,24.6,0,0,0,17.289-14.941,20.323,20.323,0,0,0,1.827,7.728c2.232,4.882,5.928,6.891,8.9,8.506,2.66,1.447,4.073,2.287,4.581,4.143.213.78.42,1.672.638,2.618,1.415,6.11,3.783,16.336,14.974,16.644.393.01.775.017,1.147.017a37.048,37.048,0,0,0,11.163-1.737c2.707-.772,4.34-1.237,6.573-.557a15.8,15.8,0,0,0,7.741.153c3.38,2.628,9.26,8.431,8.24,16.419-1.177,9.213,3.65,11.181,7.528,12.763,2.555,1.043,4.761,1.943,5.991,4.843,3.04,7.166,5.97,17.736,2.66,27.387-2.228,6.5,1.462,8.631,4.155,10.186,2.718,1.57,5.8,3.35,7.021,9.915a76,76,0,0,1,1.585,16.491l-.182.105c.013.023.072.122.172.278a29.735,29.735,0,0,1-4.895,15.651c-3.082,4.723-7.018,6.31-10.825,7.841-3.112,1.253-6.331,2.548-8.576,5.49-3.792,4.965-3.215,7.97-2.342,12.52.313,1.635.67,3.488.937,5.883,1.077,9.688-1.785,17.663-9.278,25.852-4.856,5.31-14.871,9.978-15.358,10.131h12.336c2.148-1.035,6.451-3.563,6.451-3.563,12.923-6.308,20.154,0,20.579.26l.193.123.212.085c14.109,5.635,28.746-1.008,35.14-6.846,3.337-3.048,4.488-7.136,5.6-11.09.908-3.225,1.847-6.558,3.983-9.52,2.023-2.8,4.818-2.63,9.18-2.008,3.015.428,6.13.872,8.378-1.113a15.717,15.717,0,0,0,2.942-3.791c1.472-2.395,2.077-3.387,5.375-2.752a31.54,31.54,0,0,1,6.086,1.975c3.557,1.442,7.236,2.933,12.708,1.453,6.063-1.638,11.6,1.987,15.744,5.323,2.808,2.262,4.89,1.927,7.091,1.573s5.246-.843,11.7.642c8.973,2.065,12.811,10.95,11.406,26.409a21.572,21.572,0,0,0-.082,2.841h4.883a17.651,17.651,0,0,1,.08-2.4c.978-10.76-.557-17.994-3.3-22.832,1.685-2.138,5.848-6.468,12.208-6.91,4.135-.293,7.631.7,10.1,2.865a9.281,9.281,0,0,1,3.213,6.421c.347,5.435,2.938,7.171,5.938,9.181a36.7,36.7,0,0,1,5.048,3.892c1.99,1.858,2.072,5.12,1.982,9.781h4.913c-.318-5.325-.178-10.145-3.63-13.366a41.46,41.46,0,0,0-5.665-4.382c-2.752-1.843-3.58-2.4-3.773-5.421a14.161,14.161,0,0,0-4.878-9.8c-2.422-2.118-6.751-4.546-13.669-4.066a22.049,22.049,0,0,0-14.9,7.783,18.051,18.051,0,0,0-8.86-4.781c-7.386-1.7-11.111-1.1-13.579-.7-1.887.3-2.13.342-3.238-.55-4.655-3.75-11.8-8.478-20.1-6.238-3.885,1.048-6.278.078-9.59-1.263a36.151,36.151,0,0,0-7-2.245c-6.62-1.285-8.856,2.347-10.485,5a11.535,11.535,0,0,1-2.01,2.68c-.552.49-2.8.168-4.441-.065-4.195-.6-9.943-1.415-13.844,3.995-2.643,3.665-3.748,7.593-4.725,11.06-1.012,3.593-1.885,6.695-4.188,8.8-3.777,3.448-16.464,11.211-29.834,5.988a29.865,29.865,0,0,0-19.5-3.228c5.97-7.961,8.286-16.244,7.233-25.721-.287-2.588-.678-4.628-.993-6.266-.817-4.255-1.035-5.4,1.425-8.621,1.428-1.872,3.672-2.773,6.511-3.916,4.087-1.645,9.175-3.693,13.1-9.711a34.2,34.2,0,0,0,5.183-13.476,38.741,38.741,0,0,0,4.245,3.223c2.97,1.958,2.9,5.635,2.42,11.456a50.022,50.022,0,0,0-.252,6c.213,5.316,6.768,10.056,12.77,12.209a21.478,21.478,0,0,0,7.181,1.372c3.311,0,6.071-1.035,7.881-3.06,3.1-3.473,7.558-4.815,12.273-6.233a43.154,43.154,0,0,0,8.75-3.34c7.743-4.355,11.343-13.438,8.195-20.677-.947-2.178-.692-5.425-.42-8.861.4-5.031.845-10.735-2.312-15.426-5.375-7.983-17.856-8.831-25.009-4.235-2.155,1.385-4.272,1.275-6.951,1.135-3.045-.16-6.836-.357-11.218,1.873-4.548,2.315-6.1,5.668-6.6,8.073a13.263,13.263,0,0,0,2.828,10.781c.765.93,1.535,1.732,2.213,2.438,2.237,2.328,3.36,3.5,2.965,6.888-.418,3.6,2.458,7.038,7.33,8.761,5.4,1.912,12.476,1.28,16.1-4.443,6.153-9.715,4-16.431-.057-19.476-2.565-1.923-6.881-2.9-10.165-1.048-2.07,1.167-4.413,3.8-3.821,9.753l4.878-.487c-.15-1.5-.172-4.138,1.35-5,1.307-.737,3.586-.222,4.816.7,2.308,1.732,3.222,6.038-1.143,12.931-2.178,3.442-6.755,3.708-10.325,2.445-2.713-.96-4.215-2.572-4.1-3.575.662-5.686-1.86-8.311-4.3-10.85-.648-.675-1.317-1.37-1.96-2.155a8.375,8.375,0,0,1-1.817-6.666,6.931,6.931,0,0,1,4.031-4.706c3.212-1.637,5.895-1.5,8.738-1.348,2.988.155,6.373.332,9.856-1.908,4.6-2.96,14.311-3.067,18.291,2.847,2.2,3.275,1.842,7.866,1.492,12.3-.307,3.885-.622,7.9.812,11.2,2.158,4.965-.523,11.313-6.1,14.451a39.012,39.012,0,0,1-7.76,2.918c-4.918,1.48-10.491,3.158-14.516,7.661-1.6,1.795-5.34,1.927-9.751.34-5.51-1.978-9.443-5.695-9.526-7.793a45.715,45.715,0,0,1,.24-5.4c.468-5.743,1-12.251-4.608-15.948a28.823,28.823,0,0,1-6.406-5.551,83.592,83.592,0,0,0-1.688-16.2c-1.635-8.783-6.3-11.48-9.388-13.263-2.617-1.512-2.89-1.668-1.97-4.353,3.812-11.118.59-22.934-2.785-30.89-2.02-4.76-5.7-6.261-8.653-7.466a9.821,9.821,0,0,1-3.652-2.048,27.71,27.71,0,0,0,4.066.313,16.566,16.566,0,0,0,9.64-2.688c3.195-2.265,5.076-5.8,5.635-10.51a26.726,26.726,0,0,0,5.746,4.27c2.258,1.312,2.612,2.895,3.195,5.516.712,3.188,1.595,7.156,6.3,11.216a14.056,14.056,0,0,0,9.448,3.75A17.476,17.476,0,0,0,278.5,352l.007.02c3.92-1.207,7.271-1.082,9.693.362,2.217,1.32,3.688,3.73,4.375,7.161a29.368,29.368,0,0,1,.358,6.553c-.13,5.78-.263,11.755,9.275,18.626.772.627,4.711,3.478,14.766,5.656,6.685,1.448,6.876,2.455,7.443,5.446a30.089,30.089,0,0,0,.792,3.373c.207.673.375,1.312.538,1.92,1.438,5.408,2.915,8.915,14.668,12.7,7.856,2.53,11.766-.758,14.621-3.157,2.45-2.06,3.8-3.193,7.32-1.762,2.5,1.017,2.513,1.347,2.6,3.9a22.575,22.575,0,0,0,3.875,12.56,13.615,13.615,0,0,0,12.278,6.586c4.768,0,9.74-1.713,13.654-3.452,2.985.247,18.059,2.077,20.438,13.969,2.672,13.354,9.395,16.021,17.181,19.109,2.062.817,4.193,1.663,6.47,2.767,8.531,4.138,16.424,12.118,12.983,22.106-1.31,3.807-1.612,8.726-1.443,13.543h4.895a34.581,34.581,0,0,1,1.265-11.946C460.3,477.146,454.371,466.375,441.071,459.925ZM385.562,140.851c3.657,6.583,10.725,8.486,14.213,7.283,2.268-.78,11.64.1,12.821,2.822,2.01,4.631,6.175,10.18,10.946,12.133.407.167.883.35,1.418.555,4.142,1.587,11.853,4.54,13.341,10.755.783,3.27.048,6.193-.663,9.02-.9,3.582-1.922,7.64,1.188,11.258a26.62,26.62,0,0,0,6.4,4.806c4.626,2.832,9.408,5.758,9.683,11.818.14,3.083-.932,15.084-8.728,17.483-10.668,3.282-8.716,11.556-7,18.856l.328,1.4a2.4,2.4,0,0,1-.358,2.263c-1.263,1.582-4.732,2.308-7.3,2.487-2-3.03-4.408-6.276-9.2-8.058-10.16-3.772-23.751,5.165-24.286,5.523a16.277,16.277,0,0,1-13.819,1.542,9.673,9.673,0,0,1-5.741-5.3,15.418,15.418,0,0,0,4.095-4.593,25.116,25.116,0,0,0,3.057-10.18c.59-4.348,1.055-7.781,6.031-11.725,9.93-7.868,14.7-14.019,13.189-25.8a25.722,25.722,0,0,0-5.055-12.17c-1.772-2.6-2.942-4.313-2.52-7.126,1.362-9.078-.167-16.451-4.671-22.537a21.275,21.275,0,0,0-5.9-5.248c-2.763-1.825-4.286-2.83-4.408-7.5a22.911,22.911,0,0,0-.448-3.9A17.479,17.479,0,0,1,385.562,140.851ZM194.631,205.817l.367-.632a12.49,12.49,0,0,0,1.49-4.691c.262.01.537.017.835.017,4.31,0,12.131-1.21,16.836-9.186,5.623-9.53,8.526-11.576,11.243-12.974a12.682,12.682,0,0,0,3.718-3.212,12.711,12.711,0,0,0,4.273,6.666,9.731,9.731,0,0,0,9.633,1.558c1.888-.777,4.816-.972,6.795.43,1.55,1.1,2.258,3.08,2.107,5.883-.588,10.82,3.17,13.986,11.888,18.634a20.691,20.691,0,0,0,24.329-3.41c1.537-1.51,4.636-4.033,8.13-3.923,2.275.067,4.49,1.252,6.59,3.52.07.077.138.155.2.237,1.375,1.845,1.937,5.653,2.53,9.676,1.152,7.795,2.583,17.5,11.285,21.249a30.011,30.011,0,0,0,11.83,2.865,18.576,18.576,0,0,0,7.115-1.458,10.912,10.912,0,0,1,1.458-.487,7.094,7.094,0,0,1,2.11.315c2.833.655,7.118,1.64,12.638-2.213,4.335-3.028,5.2-8.313,5.895-12.561.415-2.535.885-5.41,1.958-5.725.687-.2,1.488-.395,2.338-.6,5.348-1.285,14.3-3.433,16.008-14.591.822-5.365-.768-10.81-4.6-15.748-6-7.74-16.074-12.594-22.5-13.233-9.171-.912-9.71-1.5-11.158-5.8-1.153-3.425-4.873-6.073-9.955-7.088-4.686-.935-11.035-.4-14.793,3.887l-.132.165c-.358.49-.723.973-1.087,1.453-3.387,4.486-7.225,9.571-5.345,18.654,2.132,10.3,8.931,22.234,21.056,21.867,8.155-.23,10.873-5.055,11.663-7.118,1.325-3.458.708-7.468-1.467-9.536a9.591,9.591,0,0,0-9.773-1.583,7.156,7.156,0,0,0-3.991,3.993,2.237,2.237,0,0,0,2.043,3.047l.453.01a2.289,2.289,0,0,0,2.1-1.363,2.317,2.317,0,0,1,1.272-1.163,4.769,4.769,0,0,1,4.513.612,4.512,4.512,0,0,1,.265,4.228c-.955,2.492-3.452,3.863-7.225,3.97-9.076.225-14.369-9.515-16.116-17.959-1.428-6.91,1.168-10.351,4.458-14.708.353-.468.708-.938,1.058-1.415,1.983-2.188,5.925-3.068,10.081-2.237,3.19.637,5.71,2.182,6.268,3.845,2.438,7.246,5.74,8.163,15.319,9.115,5.483.545,14.129,4.943,19.109,11.36,3.03,3.9,4.25,7.941,3.628,12-1.21,7.9-7.1,9.316-12.306,10.566-.91.218-1.77.425-2.573.66-4.033,1.183-4.736,5.481-5.415,9.638-.6,3.682-1.225,7.49-3.863,9.331-3.733,2.608-6.276,2.022-8.731,1.457a9.837,9.837,0,0,0-4.153-.348,14.047,14.047,0,0,0-2.25.712c-2.742,1.038-6.5,2.46-15.269-1.323-6.191-2.67-7.3-10.191-8.375-17.463-.713-4.836-1.388-9.406-3.722-12.238l-.073-.085c-3.073-3.4-6.515-5.186-10.23-5.3-5.021-.138-9.155,2.815-11.711,5.326a16.008,16.008,0,0,1-18.586,2.58c-7.926-4.225-9.735-6.028-9.3-14.041.312-5.723-2.093-8.676-4.163-10.148-3.512-2.492-8.306-2.282-11.5-.967a4.863,4.863,0,0,1-4.746-.887c-1.393-1.092-3.5-3.778-3.057-9.9a2.214,2.214,0,0,0-.1-.848,29.652,29.652,0,0,0,1.168-10.3c-.195-3.5,1.118-4.311,4.941-6.14,3.795-1.815,8.993-4.3,11.963-11.978a35.964,35.964,0,0,0,2.042-7.606,7.142,7.142,0,0,1,4.918-1.4c4.5.427,8.656,4.936,10.238,6.856.663.8,1.212,1.595,1.742,2.36,2.632,3.795,4.863,6.215,11.868,6.215.787,0,1.635-.032,2.55-.093.858-.037,10.8-.58,19.194-6.451,4.683-3.28,7.458-2.518,12.986-1.007a69.425,69.425,0,0,0,9.083,2c13.364,1.89,24.371-2.6,29.44-12.018a31.735,31.735,0,0,1,5.93-8.2c9.276,3.535,16.179,12.491,16.411,21.294.19,7.225,3.6,9.476,6.608,11.463A16.457,16.457,0,0,1,389,156.264c3.743,5.058,4.938,11.063,3.763,18.9-.707,4.715,1.338,7.715,3.316,10.616,1.792,2.627,3.643,5.341,4.243,10.031,1.233,9.638-2.342,14.184-11.373,21.337-6.523,5.168-7.225,10.343-7.843,14.908-.383,2.835-.747,5.511-2.42,8.343-4.391,7.435-13.811,5.476-19.038,3.648-7.665-2.687-15.068.7-19.811,9.041-1.275,2.243-6.94,4.571-13.4,4.418-5.05-.107-8.863-1.723-10.2-4.326-5.03-9.78-13.656-9.795-22.857-9.765h-.738c-3.672,0-6.838,2.11-9.9,4.15-5.81,3.872-11.318,7.536-21.607.837-1.107-5.438-4.226-7.441-7.063-9.261-2.39-1.535-4.453-2.858-5.745-6.42a28.865,28.865,0,0,1-1.442-8.766c-.318-5.9-.648-12-11.061-17.309-13.413-6.836-23.927-2.888-32.377.285-.827.31-1.643.617-2.452.91-4.482,1.625-6.648.765-7.4-.212C193.916,207.05,194.259,206.453,194.631,205.817Zm-32.849,64.477c-3.427,1.123-7.31,2.4-7.521,6.518-.2,3.837-5.27,12.045-14.264,14.056-4.262.955-7.548-.84-11.351-2.918s-8.1-4.428-13.6-3.618c-3.43.5-7,2.57-10.78,4.757-5.185,3-10.991,6.36-17.349,6.25a2.432,2.432,0,0,0-.84.137c-.25-.443-.51-.887-.788-1.327a28.157,28.157,0,0,0-9.546-9.293c-3.3-2.133-4.536-2.93-4.073-8.02,2.07-22.779-7.116-29.774-15.188-31.63-7.388-1.7-11.113-1.1-13.579-.7-1.888.3-2.13.342-3.238-.55-4.655-3.75-11.8-8.478-20.1-6.238a6.354,6.354,0,0,1-3.693.068,19.229,19.229,0,0,0,12.113-7.058c2.5-2.962,4.5-3.132,7.81-3.413a35.235,35.235,0,0,0,5.131-.717c4.078-.942,10.006-2.318,14.268-5.773,2.088,7.665,7.9,17.621,19.933,18.463a83.974,83.974,0,0,0,8.948.145,10.174,10.174,0,0,1,3.562.188c.6.327,1.412,1.747,2.2,3.233,4.378,8.286,15.861,9.688,21.844,7.01,2.593-1.16,4.335-3.483,5.87-5.533,2.328-3.108,3.482-4.326,5.52-3.9,7.231,1.508,17.176.055,21.4-8.991,3.628-7.775,4.966-8.3,7.651-8.746,3.058-.51,6.685-3.195,9.023-6.683a16.176,16.176,0,0,0,2.435-12.853,34.682,34.682,0,0,0-3.312-8.873c-1.212-2.378-1.943-3.815-1.637-7.193.45-4.96-1.22-11.661-11.745-15.419-3.307-1.18-3.813-2.46-5.316-6.258-.432-1.092-.922-2.33-1.558-3.747-3.425-7.626-12.959-10.323-20.371-9.591-8.608.845-17.743,7.051-17.459,18.678.178,7.331-1.33,8.665-3.83,10.875a29.827,29.827,0,0,0-2.51,2.417c-3.708,4.1-6.79,11.268-.425,22.087a15.6,15.6,0,0,0,14.189,7.565c4.988-.147,9.313-2.39,11.016-5.716,2.338-4.563,2.66-8.728.907-11.725-1.342-2.292-3.725-3.74-7.1-4.323a2.451,2.451,0,0,0-.853,4.826c1.558.267,3.057.832,3.725,1.973.853,1.457.465,4.08-1.038,7.013-.86,1.678-3.718,2.962-6.8,3.052a10.783,10.783,0,0,1-9.82-5.15c-3.9-6.63-3.955-12.12-.163-16.318a25.405,25.405,0,0,1,2.12-2.03c3.453-3.053,5.7-5.723,5.483-14.668-.238-9.763,8.083-13.193,13.038-13.679,5.906-.577,13.1,1.543,15.421,6.72.59,1.317,1.058,2.5,1.472,3.543,1.642,4.146,2.827,7.143,8.225,9.071,9.155,3.27,8.67,8.606,8.511,10.36a15.674,15.674,0,0,0,2.15,9.861,29.969,29.969,0,0,1,2.9,7.741,11.368,11.368,0,0,1-1.727,9.031c-1.883,2.81-4.5,4.366-5.756,4.577-5.1.848-7.418,3.215-11.288,11.508-3.882,8.316-13.973,6.678-15.956,6.266-5.3-1.107-8.271,2.867-10.441,5.765-1.293,1.725-2.515,3.357-3.95,4-3.693,1.653-12.388,1.077-15.508-4.826-3.007-5.693-4.523-6.195-10.233-6.033a79.6,79.6,0,0,1-8.466-.133c-13.6-.953-16.061-17.076-16.159-17.761a5.994,5.994,0,0,1-.045-1.033,13.741,13.741,0,0,0,.527-1.367l-.358-.113c.143-.818.36-1.695.593-2.637,1.03-4.153,2.442-9.843-1.715-16.573-5.258-8.513-5.9-17-1.75-23.271a6.78,6.78,0,0,1,2.243-2.015.985.985,0,0,0,.95-.508,39.631,39.631,0,0,1,6.613-2.22c5.606-1.537,12.584-3.447,11.76-10.571-.392-3.368,1.3-7.245,4.515-10.37,3-2.917,6.685-4.55,9.4-4.153,10.313,1.5,19.484-1.028,28.039-7.73,8.635-6.77,21.781-.868,26.4,4.195,4.736,5.188,9.355,5.69,13.821,6.175a42.553,42.553,0,0,1,4.315.62c4.856,1.033,12.559,10.006,11.88,17.369-.855,9.266.085,11.555,7.181,17.493,5.521,4.621,10.2,17.424,7.081,22.8l-.365.627c-3.693,6.353-5.923,10.188-4.418,21.957,1.1,8.631-3.082,14.058-7.511,19.8-.767.993-1.558,2.022-2.3,3.043a22.171,22.171,0,0,0-4.19,10.021,24.325,24.325,0,0,1-2.323,7.141C168.184,268.2,164.929,269.263,161.782,270.294Zm82.708,55.02c-.082,4.35-1.34,7.421-3.74,9.126-3.58,2.547-9.011,1.84-11.793,1.238.015-.138.025-.267.043-.41,1.112-8.706-3.725-15.169-7.8-18.966a14.64,14.64,0,0,0,7.26-7.983c1.5-4.5,2.6-4.716,5.008-5.185.32-.063.648-.127.983-.2.223-.048.488-.1.79-.157,3.845-.732,15.543-2.96,17.006-17.078.8-7.721-.983-14.533-5.023-19.178a18.642,18.642,0,0,0-13.8-6.313c-6.071-.217-6.85-1.887-8.028-4.413a12.873,12.873,0,0,0-3.047-4.526c-2.95-2.655-9.94-4.62-16.533-3.308a18.462,18.462,0,0,0-13.459,10.585c-3.135,6.563-2.157,12.964,2.615,17.121a15.2,15.2,0,0,0,15.511,2.438,2.445,2.445,0,1,0-1.885-4.512,10.278,10.278,0,0,1-10.406-1.622c-3.058-2.663-3.573-6.786-1.412-11.313a13.555,13.555,0,0,1,9.991-7.888c5.231-1.038,10.591.608,12.3,2.143a8.586,8.586,0,0,1,1.882,2.955c1.765,3.785,3.908,6.943,12.3,7.241a13.851,13.851,0,0,1,10.278,4.632c3.14,3.608,4.5,9.1,3.845,15.454-1.087,10.49-9.165,12.028-13.046,12.768-.353.068-.662.127-.922.183-.3.065-.588.122-.873.177-3.578.7-6.491,1.762-8.72,8.446-.95,2.852-3.775,5.025-6.913,6.145-.45-.293-.745-.465-.822-.508l-.523.917a11.407,11.407,0,0,1-5.965.065c-3.615-1.1-6.4-.31-9.348.53a32.17,32.17,0,0,1-10.83,1.535c-6.875-.188-8.62-5.445-10.335-12.851-.23-.993-.448-1.933-.687-2.808-1.085-3.955-4.21-5.655-6.968-7.155-2.69-1.462-5.23-2.845-6.781-6.238a16.448,16.448,0,0,1-.718-11.278,2.753,2.753,0,0,0,.077-.4c3.43-1.14,7.786-2.8,10.018-7.183a29.217,29.217,0,0,0,2.763-8.408,17.368,17.368,0,0,1,3.35-8.1c.7-.963,1.435-1.917,2.215-2.927,4.618-5.988,9.855-12.776,8.491-23.417-.772-6.041-.508-9.451.567-12.5a8.081,8.081,0,0,0,.938.547c2.678,1.32,6.15,1.222,10.321-.29.825-.3,1.66-.612,2.5-.928,8.331-3.128,16.944-6.36,28.429-.507,7.9,4.025,8.095,7.678,8.393,13.206a33.345,33.345,0,0,0,1.728,10.173c1.855,5.12,5.1,7.2,7.7,8.875,2.577,1.653,4.485,2.888,5.055,6.823l-.508.68c.212.158.418.3.627.452a26.523,26.523,0,0,1,0,3.5c-.138,2.37-.277,4.375-.395,6.093-.687,9.966-.775,11.248,3.923,17.361,3.71,4.823,8.351,20.144-2.177,29.434-3.19,2.815-5.583,4.62-7.33,5.938C245.771,317.2,244.622,318.329,244.491,325.314Zm43.455,17.516c-1.555.593-3.085,1.3-4.563,1.99-6.533,3.032-10.788,4.675-15.729.41-3.477-3-4.08-5.7-4.718-8.571-.658-2.952-1.4-6.3-5.518-8.688-3.873-2.25-5.988-4.311-6.286-6.126-.067-.4-.258-1.607,1.448-3.635.3-.232.625-.477.99-.752,1.81-1.367,4.29-3.237,7.621-6.176,11.666-10.295,8.675-26.386,4.086-34.2a16.223,16.223,0,0,0,2.223.38c6.978.7,16.008-2.867,17.913-7.056,1.492-3.282,2.9-6.383,11.716-4.725,2.415.412,5.5,1.373,6.513,3.617.872,1.94.047,4.453-1.017,6.16-6.683,10.725-1.953,15.609,3.055,20.781,1.23,1.272,2.5,2.585,3.738,4.088l.055.065c.043.048,4.243,4.9,1.9,10.133-3.447,7.688-6.368,7.433-9.063,6.511-6.348-2.167-10.771.577-15.456,3.48l-.758.468a7.366,7.366,0,0,1-6.658.243,8.49,8.49,0,0,1-4.79-6.52c-.673-3.585.3-6.851,2.595-8.738,1.958-1.608,4.681-2.022,7.8-1.22a2.442,2.442,0,0,0,2.873-1.457l0,0a2.442,2.442,0,0,0-1.633-3.278c-4.653-1.187-8.981-.438-12.156,2.168-3.7,3.04-5.31,8.06-4.3,13.431a13.256,13.256,0,0,0,7.625,10.1,12.839,12.839,0,0,0,5.173,1.095,11.534,11.534,0,0,0,6.04-1.648l.768-.475c4.691-2.908,7.323-4.363,11.288-3.008,9.558,3.267,13.744-6.076,15.119-9.145,3.52-7.851-2.1-14.691-2.66-15.339-1.357-1.648-2.752-3.09-3.983-4.362-4.858-5.016-7.075-7.306-2.417-14.779,2.243-3.6,2.74-7.621,1.328-10.761-1.52-3.383-4.938-5.55-10.118-6.433-10.413-1.962-14.348,1.588-17.044,7.521-.682,1.487-7.113,4.795-12.983,4.2-3.257-.33-5.436-1.757-6.613-4.341a2.64,2.64,0,0,0-.59-.818c0-1.5.135-3.47.328-6.278.118-1.733.258-3.757.4-6.145.015-.247.023-.485.033-.723,11.255,5.8,18.471,1,23.936-2.637,2.68-1.785,4.995-3.328,7.181-3.328h1.017c9.306,0,14.764.387,18.221,7.106,1.5,2.918,4.422,5.028,8.328,6.126a22.325,22.325,0,0,0,1.675,12.5,18.182,18.182,0,0,0,4.9,6.37c2.823,2.625,4.863,4.52,3.133,12.714l-.035.212c-.007.055-.792,5.65-7.156,13.194-5.433,6.438-5.64,14.653-.755,22.531-1.607.727-3.027,1.262-4.32,1.747-4.1,1.537-7.336,2.75-11,8.016-2.028,2.913-4.458,2.98-8.93,2.858C294.755,341.6,291.4,341.511,287.946,342.83Zm85.122,79.922a17.761,17.761,0,0,1-3.13-10.123c-.1-2.98-.207-6.06-5.655-8.275-6.258-2.543-9.62.282-12.319,2.55-2.62,2.2-4.69,3.942-9.965,2.243-9.8-3.155-10.38-5.335-11.431-9.291-.177-.667-.363-1.367-.59-2.1a24.778,24.778,0,0,1-.66-2.847c-.927-4.885-2.337-7.4-11.221-9.321-9.435-2.045-12.691-4.653-12.7-4.655l-.182-.143c-7.508-5.385-7.421-9.243-7.3-14.584a33.628,33.628,0,0,0-.453-7.625c-.955-4.78-3.262-8.38-6.671-10.411a12.528,12.528,0,0,0-1.307-.67c.07-.027.14-.06.208-.087,2.547-.972,5.261-.9,7.886-.822,4.433.123,9.455.267,13.091-4.956,2.795-4.013,4.893-4.8,8.7-6.226,1.542-.577,3.395-1.277,5.56-2.308,3.55,4.337,3.832,4.8,2.548,11.868-1.863,10.253,3.278,19.559,12.226,22.131,7.548,2.168,8.285,2.812,9.843,8.6.8,2.97,3.561,5.415,7.991,7.076a33.666,33.666,0,0,0,11.418,1.958c4.3,0,8.478-.835,11.376-2.78,3.71-2.487,5.43-2.287,8.281-1.96a24.889,24.889,0,0,0,7.2.007c7.343-1.123,11.773-1.8,16.678-7.606,2.338-2.768,4.215-2.928,7.321-3.193a33.353,33.353,0,0,0,4.885-.683c3.887-.9,13.243-3.985,16.179-13.268,2.638-8.336,1.958-15.759-1.965-21.466l-.438-.637a18.382,18.382,0,0,1-2.275-3.713,10.246,10.246,0,0,1,1.18-2.42l.468-.818c2.315-4.02,5.815-10.093,1.768-18.374-3.5-7.156-8.655-10.7-15.771-10.826-3.888-.072-4.655-.623-5.468-3.943-1.413-5.761-8.848-10.1-17.294-10.1-7.728,0-10.116,3.353-11.86,5.8-.083.117-.167.235-.252.352-.275-.13-.607-.3-.88-.445a14.822,14.822,0,0,0-8.945-2.052c-8,.843-10.478,3.93-12.466,9.7-1.092,3.175-1.437,3.2-3.345,3.317-.308.018-.632.038-.97.07-.3.027-.637.043-1.008.062-3.32.173-10.228.533-13.644,8.235-3.723,8.391-1.11,12.233,1.915,16.679,1.16,1.7.925,2.665.36,4.98a23.913,23.913,0,0,0-.87,6.8c.143,5.353,4.148,6.511,6.541,7.2,2.04.592,2.673.888,2.94,1.718.193.6.378,1.243.573,1.917,1.388,4.81,3.488,12.076,11.818,15.233A21.232,21.232,0,0,0,387.2,361.9c3.26-1.527,5.531-3.745,6.4-6.243a29.453,29.453,0,0,0,1.082-4.616c.613-3.488,1.087-5.538,3.672-7.09,5.16-3.095,9.236-5.54,9.341-13.863a17.673,17.673,0,0,0-5.04-13.071c-3.443-3.285-8.256-4.768-14.293-4.408-5.183.31-8.9,2.1-11.05,5.338-3.4,5.11-1.358,11.661-.915,12.923.963,2.743,4.258,5.018,7.665,5.291,3.907.318,7.458-1.893,9.721-6.06l-4.306-2.342c-.932,1.713-2.587,3.7-5.023,3.515a4.335,4.335,0,0,1-3.432-2.03c-.685-1.95-1.377-5.951.373-8.585,1.252-1.883,3.693-2.945,7.26-3.158,4.628-.28,8.2.753,10.616,3.062,3.248,3.1,3.545,7.65,3.522,9.461-.072,5.588-2.088,6.8-6.961,9.723-4.63,2.778-5.346,6.851-5.978,10.445a25.19,25.19,0,0,1-.887,3.865c-.413,1.2-1.85,2.473-3.84,3.4a16.492,16.492,0,0,1-12.4.478c-6.036-2.287-7.53-7.453-8.846-12.009-.208-.723-.408-1.413-.615-2.057-1.1-3.438-4.075-4.3-6.245-4.926-2.51-.727-2.96-.987-3-2.627a19.236,19.236,0,0,1,.732-5.508c.648-2.65,1.317-5.391-1.068-8.9-2.818-4.143-4.1-6.035-1.488-11.935,2.2-4.951,6.37-5.17,9.42-5.328.435-.022.832-.043,1.183-.075.3-.027.577-.043.845-.06,3.23-.2,5.671-.795,7.673-6.613,1.535-4.458,2.817-5.843,8.345-6.425A10.117,10.117,0,0,1,385.828,293c1.59.828,4.548,2.368,6.715-.487.228-.3.45-.613.673-.925,1.488-2.09,2.663-3.742,7.866-3.742,6.563,0,11.779,3.295,12.533,6.371,1.537,6.266,5.02,7.583,10.141,7.676,3.527.063,8.018,1.04,11.456,8.078,2.9,5.94.505,10.1-1.612,13.774l-.5.872c-2.747,4.858-2.428,5.841,1.337,11.308l.435.632c3.835,5.58,2.841,12.438,1.33,17.209-2.175,6.876-9.541,9.263-12.609,9.971a28.913,28.913,0,0,1-4.2.575c-3.443.293-7,.6-10.651,4.913-3.716,4.4-6.631,4.846-13.673,5.923a20.261,20.261,0,0,1-5.9-.03c-3.132-.363-6.366-.735-11.573,2.758-3.722,2.495-12.121,2.633-18.344.3-2.763-1.035-4.625-2.442-4.98-3.76-2.122-7.878-4.58-9.555-13.223-12.038-6.583-1.892-10.185-8.693-8.758-16.543,1.642-9.023.583-10.77-3.72-16.023l-.435-.532c-2.692-3.3-8.243-11.8-1.672-19.588,6.91-8.188,8.1-14.574,8.26-15.641,2.265-10.84-1.387-14.236-4.61-17.233a13.759,13.759,0,0,1-3.742-4.725,17.371,17.371,0,0,1-1.35-9.75c.428.028.863.048,1.3.057.2,0,.395.007.595.007,6.678,0,14.564-2.323,17.168-6.9,2.075-3.648,6.643-9.391,13.931-6.836,6.3,2.2,11.9,2.52,16.4,1.053a14.516,14.516,0,0,0,8.4,7.653,21.139,21.139,0,0,0,18.218-2.028c3.328-2.218,13.394-7.45,19.9-5.031,3.7,1.373,5.376,3.946,7.32,6.926,2.165,3.32,4.62,7.083,10.125,8.418,7.741,1.878,15.644,8.43,15.043,16.868-.493,6.895,3.868,9,7.371,10.7,2.75,1.332,5.125,2.482,6.3,5.67,3.575,9.69,3.38,19.549-.522,26.377-.53.927-1.018,1.77-1.467,2.542-3.756,6.471-5.311,9.151-2.213,14.108a26,26,0,0,1,1.368,22.926c-3.322,8.178-6.753,9.185-10.071,10.158-.717.21-1.457.428-2.173.712-5.355,2.118-7.6,10.4-6.261,16.5.845,3.87-4.952,8.63-9.158,10.08-4.41,1.52-5.566,5.508-6.5,8.711a17.437,17.437,0,0,1-1.713,4.436c-2.342,3.7-5.36,5.948-13.868,6.495a17.908,17.908,0,0,1-7.813-1.042,9.481,9.481,0,0,0-8.756.573C389.688,425.873,378.1,430.781,373.067,422.751Z" transform="translate(0.001 0.005)" fill="#272727"/>
  <path id="Path_3548" data-name="Path 3548" d="M316.7,159.728c-.043-.012-.085-.027-.127-.038-.374.207-.971.489-1.33.656-3.145,1.474-7.92,1.2-12.854-.666-6.438-2.439-6.785-8.756-8.184-13.6-.22-.761-.431-1.487-.648-2.166-1.145-3.563-4.179-4.059-6.441-4.715-2.689-.778-3.22-1.088-3.268-2.9a20.431,20.431,0,0,1,.776-5.85c.676-2.771,1.377-5.635-1.108-9.29-3-4.42-4.375-6.436-1.582-12.732,2.352-5.3,6.393-4.321,9.646-4.492.457-.023.876-.047,1.245-.078.314-.028.613-.047.9-.063,3.358-.21,5.9-.828,7.983-6.892,1.642-4.77,2.125-7.037,8.035-7.659,2.888-.3,4.85-.367,6.586.537.117.062.242.125.369.19v.174h0v-5.41a.167.167,0,0,0-.023-.013v.06a10.735,10.735,0,0,0-5.545-.419c-8.379.881-10.969,4.113-13.051,10.156-1.182,3.435-1.607,3.463-3.649,3.59-.325.02-.664.042-1.021.073-.317.028-.676.047-1.07.067-3.478.182-11.812.294-15.386,8.352-3.9,8.791-1.16,12.819,2.011,17.484,1.258,1.849,1.006,2.878.4,5.364a25.2,25.2,0,0,0-.915,7.147c.149,5.553,5.413,7.025,7.9,7.746,2.068.6,2.879.918,3.195,1.9.2.634.4,1.314.606,2.026,1.459,5.054,3.665,12.69,12.4,16a22.534,22.534,0,0,0,7.733,1.844c2.679,0,3.655.057,5.927-.815a4.719,4.719,0,0,1,.486-.222Z" transform="translate(183.296 56.091)" fill="#272727"/>
  <path id="Path_3549" data-name="Path 3549" d="M339.231,83.405V78.2l-.023-.007v.015c-4.064.885-7.464,3.215-7.08,11.642.162,3.577-.449,10.171-6.358,14.147a13.246,13.246,0,0,1-14.639-.015c-5.1-3.347-7.875-1-12.478,2.889l-.838.708c-3.981,3.347-12.168.758-15.744-2.62-4.276-4.041-6.838-3.654-11-2.624-.739.184-1.566.389-2.517.588-4.633.961-8.868.214-14.483-6.6-2.635-3.2-2.49-5.475-2.322-8.112.165-2.58.369-5.79-2.625-9-4.014-4.308-3.023-10.467-1.484-14.875a9.245,9.245,0,0,1,2.554-3.5c2.018-2.016,4.528-4.523,3.173-9.844-1.309-5.141-.212-8.421,1.307-12.957q.265-.791.537-1.616c1.335-4.093,8.082-8.063,17.03-7.638,8.09.391,11.557,5.5,11.842,8.634.564,6.194,4.667,9.559,11.57,9.46,1.965-.038,7.957-.107,10.3,13.176,1.739,9.853-6.179,14.259-13.127,16.222a9.39,9.39,0,0,1-10.156-3.827c-2.093-2.854-2.46-6.2-.938-8.524a5.849,5.849,0,0,1,3.62-2.879,5.233,5.233,0,0,1,3.6.9l2.964-3.914a10.072,10.072,0,0,0-7.351-1.833c-2.717.462-5.051,2.156-6.937,5.032-2.659,4.054-2.233,9.6,1.085,14.119A14.313,14.313,0,0,0,294.159,81c12.395-3.5,18.453-11.445,16.626-21.8-2.537-14.376-9.674-17.268-15.2-17.232-.078,0-.157,0-.234,0-5.2,0-6.144-2.4-6.381-5-.451-4.966-5.216-12.548-16.494-13.092-10.46-.512-19.687,4.129-21.933,11.018-.175.539-.352,1.065-.524,1.579-1.581,4.724-3.074,9.185-1.409,15.726.664,2.612-.134,3.412-1.886,5.161A13.816,13.816,0,0,0,243,62.71c-2.844,8.15-1.97,15.01,2.53,19.837,1.551,1.666,1.464,3.049,1.315,5.344-.185,2.891-.437,6.852,3.433,11.547,6.064,7.354,11.827,9.831,19.27,8.279,1.02-.212,1.906-.431,2.7-.628,3.392-.841,3.914-.971,6.453,1.425a22.033,22.033,0,0,0,14.129,5.516,12.4,12.4,0,0,0,8.145-2.707l.846-.713c4.58-3.871,4.657-3.822,6.616-2.537a18.151,18.151,0,0,0,20.074-.015c8.2-5.513,8.688-14.733,8.521-18.442-.19-4.176-.566-5.626,2.18-6.384v.175C339.217,83.414,339.224,83.41,339.231,83.405Z" transform="translate(160.768 15.959)" fill="#272727"/>
</svg>
